{
  "$schema": "http://json-schema.org/draft-07/schema#",
  "$id": "report-yml-schema.json",
  "type": "object",
  "additionalProperties": false,
  "required": ["exchange", "symbol", "financials"],
  "properties": {
    "exchange": {
      "type": "string",
      "enum": ["BVB", "LSE"]
    },
    "symbol": {
      "type": "string"
    },
    "financials": {
      "type": "array",
      "items": {
        "type": "object",
        "additionalProperties": false,
        "required": ["year", "quarter", "balance", "income", "cashflow"],
        "properties": {
          "year": {
            "type": "number"
          },
          "quarter": {
            "type": "string",
            "enum": ["Q1", "Q2", "Q3", "P", "A"]
          },
          "balance": {
            "type": "object",
            "additionalProperties": false,
            "required": ["assets", "equity", "liabilities"],
            "properties": {
              "assets": {
                "type": "object",
                "additionalProperties": false,
                "required": ["noncurrent", "current", "total"],
                "properties": {
                  "noncurrent": {
                    "type": "number"
                  },
                  "current": {
                    "type": "number"
                  },
                  "total": {
                    "type": "number"
                  }
                }
              },
              "equity": {
                "type": "object",
                "additionalProperties": false,
                "required": ["total"],
                "properties": {
                  "total": {
                    "type": "number"
                  }
                }
              },
              "liabilities": {
                "type": "object",
                "additionalProperties": false,
                "required": ["noncurrent", "current", "total"],
                "properties": {
                  "noncurrent": {
                    "type": "number"
                  },
                  "current": {
                    "type": "number"
                  },
                  "total": {
                    "type": "number"
                  }
                }
              }
            }
          },
          "income": {
            "type": "object",
            "additionalProperties": false,
            "required": [
              "sales",
              "expenses",
              "operating_profit",
              "financial_result",
              "profit_before_taxes",
              "tax_on_gain",
              "net_profit",
              "other",
              "total_result"
            ],
            "properties": {
              "sales": {
                "type": "number"
              },
              "expenses": {
                "type": "number"
              },
              "operating_profit": {
                "type": "number"
              },
              "financial_result": {
                "type": "number"
              },
              "profit_before_taxes": {
                "type": "number"
              },
              "tax_on_gain": {
                "type": "number"
              },
              "net_profit": {
                "type": "number"
              },
              "other": {
                "type": "number"
              },
              "total_result": {
                "type": "number"
              }
            }
          },
          "cashflow": {
            "type": "object",
            "additionalProperties": false,
            "required": [
              "operating",
              "investment",
              "financial",
              "total",
              "cash_at_start",
              "cash_at_end"
            ],
            "properties": {
              "operating": {
                "type": "number"
              },
              "investment": {
                "type": "number"
              },
              "financial": {
                "type": "number"
              },
              "total": {
                "type": "number"
              },
              "cash_at_start": {
                "type": "number"
              },
              "cash_at_end": {
                "type": "number"
              }
            }
          }
        }
      }
    }
  }
}
