{
  "$schema": "http://json-schema.org/draft-07/schema#",
  "$id": "metadata-extractor-schema.json",
  "type": "array",
  "items": {
    "type": "object",
    "additionalProperties": false,
    "required": ["id", "value"],
    "properties": {
      "id": {
        "type": "string"
      },
      "value": {
        "type": "object",
        "additionalProperties": false,
        "required": ["profile", "market"],
        "properties": {
          "profile": {
            "type": "string"
          },
          "market": {
            "type": "string"
          }
        }
      }
    }
  }
}
